<?xml version="1.0" encoding="UTF-8"?>
<dia:diagram xmlns:dia="http://www.lysator.liu.se/~alla/dia/">
  <dia:diagramdata>
    <dia:attribute name="background">
      <dia:color val="#ffffff"/>
    </dia:attribute>
    <dia:attribute name="pagebreak">
      <dia:color val="#000099"/>
    </dia:attribute>
    <dia:attribute name="paper">
      <dia:composite type="paper">
        <dia:attribute name="name">
          <dia:string>#A4#</dia:string>
        </dia:attribute>
        <dia:attribute name="tmargin">
          <dia:real val="2.8222000598907471"/>
        </dia:attribute>
        <dia:attribute name="bmargin">
          <dia:real val="2.8222000598907471"/>
        </dia:attribute>
        <dia:attribute name="lmargin">
          <dia:real val="2.8222000598907471"/>
        </dia:attribute>
        <dia:attribute name="rmargin">
          <dia:real val="2.8222000598907471"/>
        </dia:attribute>
        <dia:attribute name="is_portrait">
          <dia:boolean val="true"/>
        </dia:attribute>
        <dia:attribute name="scaling">
          <dia:real val="1"/>
        </dia:attribute>
        <dia:attribute name="fitto">
          <dia:boolean val="false"/>
        </dia:attribute>
      </dia:composite>
    </dia:attribute>
    <dia:attribute name="grid">
      <dia:composite type="grid">
        <dia:attribute name="width_x">
          <dia:real val="1"/>
        </dia:attribute>
        <dia:attribute name="width_y">
          <dia:real val="1"/>
        </dia:attribute>
        <dia:attribute name="visible_x">
          <dia:int val="1"/>
        </dia:attribute>
        <dia:attribute name="visible_y">
          <dia:int val="1"/>
        </dia:attribute>
        <dia:composite type="color"/>
      </dia:composite>
    </dia:attribute>
    <dia:attribute name="color">
      <dia:color val="#d8e5e5"/>
    </dia:attribute>
    <dia:attribute name="guides">
      <dia:composite type="guides">
        <dia:attribute name="hguides"/>
        <dia:attribute name="vguides"/>
      </dia:composite>
    </dia:attribute>
  </dia:diagramdata>
  <dia:layer name="Background" visible="true">
    <dia:object type="Standard - Image" version="0" id="O0">
      <dia:attribute name="obj_pos">
        <dia:point val="1.1,1.2"/>
      </dia:attribute>
      <dia:attribute name="obj_bb">
        <dia:rectangle val="1.075,1.175;24.1195,27.225"/>
      </dia:attribute>
      <dia:attribute name="elem_corner">
        <dia:point val="1.1,1.2"/>
      </dia:attribute>
      <dia:attribute name="elem_width">
        <dia:real val="22.994516372680664"/>
      </dia:attribute>
      <dia:attribute name="elem_height">
        <dia:real val="26"/>
      </dia:attribute>
      <dia:attribute name="border_width">
        <dia:real val="0.050000000000000003"/>
      </dia:attribute>
      <dia:attribute name="line_style">
        <dia:enum val="4"/>
      </dia:attribute>
      <dia:attribute name="draw_border">
        <dia:boolean val="false"/>
      </dia:attribute>
      <dia:attribute name="keep_aspect">
        <dia:boolean val="true"/>
      </dia:attribute>
      <dia:attribute name="file">
        <dia:string>#anatomy.png#</dia:string>
      </dia:attribute>
    </dia:object>
    <dia:object type="Standard - Line" version="0" id="O1">
      <dia:attribute name="obj_pos">
        <dia:point val="8.79402,5.04377"/>
      </dia:attribute>
      <dia:attribute name="obj_bb">
        <dia:rectangle val="8.76885,4.54376;27.175,5.54378"/>
      </dia:attribute>
      <dia:attribute name="conn_endpoints">
        <dia:point val="8.79402,5.04377"/>
        <dia:point val="27.15,5.05"/>
      </dia:attribute>
      <dia:attribute name="numcp">
        <dia:int val="1"/>
      </dia:attribute>
      <dia:attribute name="line_width">
        <dia:real val="0.050000000000000003"/>
      </dia:attribute>
      <dia:attribute name="start_arrow">
        <dia:enum val="22"/>
      </dia:attribute>
      <dia:attribute name="start_arrow_length">
        <dia:real val="0.5"/>
      </dia:attribute>
      <dia:attribute name="start_arrow_width">
        <dia:real val="0.5"/>
      </dia:attribute>
    </dia:object>
    <dia:object type="Standard - Text" version="1" id="O2">
      <dia:attribute name="obj_pos">
        <dia:point val="27.6,5.25"/>
      </dia:attribute>
      <dia:attribute name="obj_bb">
        <dia:rectangle val="27.6,4.6825;37.4175,5.685"/>
      </dia:attribute>
      <dia:attribute name="text">
        <dia:composite type="text">
          <dia:attribute name="string">
            <dia:string>#This provide the test suite title.#</dia:string>
          </dia:attribute>
          <dia:attribute name="font">
            <dia:font family="sans" style="0" name="Helvetica"/>
          </dia:attribute>
          <dia:attribute name="height">
            <dia:real val="0.80000000000000004"/>
          </dia:attribute>
          <dia:attribute name="pos">
            <dia:point val="27.6,5.25"/>
          </dia:attribute>
          <dia:attribute name="color">
            <dia:color val="#000000"/>
          </dia:attribute>
          <dia:attribute name="alignment">
            <dia:enum val="0"/>
          </dia:attribute>
        </dia:composite>
      </dia:attribute>
      <dia:attribute name="valign">
        <dia:enum val="3"/>
      </dia:attribute>
    </dia:object>
    <dia:object type="Standard - Line" version="0" id="O3">
      <dia:attribute name="obj_pos">
        <dia:point val="18.3102,6.45501"/>
      </dia:attribute>
      <dia:attribute name="obj_bb">
        <dia:rectangle val="18.2849,5.95499;27.225,6.95502"/>
      </dia:attribute>
      <dia:attribute name="conn_endpoints">
        <dia:point val="18.3102,6.45501"/>
        <dia:point val="27.2,6.45"/>
      </dia:attribute>
      <dia:attribute name="numcp">
        <dia:int val="1"/>
      </dia:attribute>
      <dia:attribute name="line_width">
        <dia:real val="0.050000000000000003"/>
      </dia:attribute>
      <dia:attribute name="start_arrow">
        <dia:enum val="22"/>
      </dia:attribute>
      <dia:attribute name="start_arrow_length">
        <dia:real val="0.5"/>
      </dia:attribute>
      <dia:attribute name="start_arrow_width">
        <dia:real val="0.5"/>
      </dia:attribute>
    </dia:object>
    <dia:object type="Standard - Text" version="1" id="O4">
      <dia:attribute name="obj_pos">
        <dia:point val="27.535,6.505"/>
      </dia:attribute>
      <dia:attribute name="obj_bb">
        <dia:rectangle val="27.535,5.9375;40.9025,7.74"/>
      </dia:attribute>
      <dia:attribute name="text">
        <dia:composite type="text">
          <dia:attribute name="string">
            <dia:string>#The rest of the module doc string
will be used for generated documentation.#</dia:string>
          </dia:attribute>
          <dia:attribute name="font">
            <dia:font family="sans" style="0" name="Helvetica"/>
          </dia:attribute>
          <dia:attribute name="height">
            <dia:real val="0.80000000000000004"/>
          </dia:attribute>
          <dia:attribute name="pos">
            <dia:point val="27.535,6.505"/>
          </dia:attribute>
          <dia:attribute name="color">
            <dia:color val="#000000"/>
          </dia:attribute>
          <dia:attribute name="alignment">
            <dia:enum val="0"/>
          </dia:attribute>
        </dia:composite>
      </dia:attribute>
      <dia:attribute name="valign">
        <dia:enum val="3"/>
      </dia:attribute>
    </dia:object>
    <dia:object type="Standard - Line" version="0" id="O5">
      <dia:attribute name="obj_pos">
        <dia:point val="14.3103,8.70501"/>
      </dia:attribute>
      <dia:attribute name="obj_bb">
        <dia:rectangle val="14.2851,8.205;27.175,9.20502"/>
      </dia:attribute>
      <dia:attribute name="conn_endpoints">
        <dia:point val="14.3103,8.70501"/>
        <dia:point val="27.15,8.7"/>
      </dia:attribute>
      <dia:attribute name="numcp">
        <dia:int val="1"/>
      </dia:attribute>
      <dia:attribute name="line_width">
        <dia:real val="0.050000000000000003"/>
      </dia:attribute>
      <dia:attribute name="start_arrow">
        <dia:enum val="22"/>
      </dia:attribute>
      <dia:attribute name="start_arrow_length">
        <dia:real val="0.5"/>
      </dia:attribute>
      <dia:attribute name="start_arrow_width">
        <dia:real val="0.5"/>
      </dia:attribute>
    </dia:object>
    <dia:object type="Standard - Text" version="1" id="O6">
      <dia:attribute name="obj_pos">
        <dia:point val="27.585,8.905"/>
      </dia:attribute>
      <dia:attribute name="obj_bb">
        <dia:rectangle val="27.585,8.3375;35.7525,9.34"/>
      </dia:attribute>
      <dia:attribute name="text">
        <dia:composite type="text">
          <dia:attribute name="string">
            <dia:string>#Import the Tester module.#</dia:string>
          </dia:attribute>
          <dia:attribute name="font">
            <dia:font family="sans" style="0" name="Helvetica"/>
          </dia:attribute>
          <dia:attribute name="height">
            <dia:real val="0.80000000000000004"/>
          </dia:attribute>
          <dia:attribute name="pos">
            <dia:point val="27.585,8.905"/>
          </dia:attribute>
          <dia:attribute name="color">
            <dia:color val="#000000"/>
          </dia:attribute>
          <dia:attribute name="alignment">
            <dia:enum val="0"/>
          </dia:attribute>
        </dia:composite>
      </dia:attribute>
      <dia:attribute name="valign">
        <dia:enum val="3"/>
      </dia:attribute>
    </dia:object>
    <dia:object type="Standard - Line" version="0" id="O7">
      <dia:attribute name="obj_pos">
        <dia:point val="7.6602,13.055"/>
      </dia:attribute>
      <dia:attribute name="obj_bb">
        <dia:rectangle val="7.63377,12.5549;27.0251,13.5551"/>
      </dia:attribute>
      <dia:attribute name="conn_endpoints">
        <dia:point val="7.6602,13.055"/>
        <dia:point val="27,13"/>
      </dia:attribute>
      <dia:attribute name="numcp">
        <dia:int val="1"/>
      </dia:attribute>
      <dia:attribute name="line_width">
        <dia:real val="0.050000000000000003"/>
      </dia:attribute>
      <dia:attribute name="start_arrow">
        <dia:enum val="22"/>
      </dia:attribute>
      <dia:attribute name="start_arrow_length">
        <dia:real val="0.5"/>
      </dia:attribute>
      <dia:attribute name="start_arrow_width">
        <dia:real val="0.5"/>
      </dia:attribute>
    </dia:object>
    <dia:object type="Standard - Text" version="1" id="O8">
      <dia:attribute name="obj_pos">
        <dia:point val="27.3849,13.255"/>
      </dia:attribute>
      <dia:attribute name="obj_bb">
        <dia:rectangle val="27.3849,12.6875;37.2524,13.69"/>
      </dia:attribute>
      <dia:attribute name="text">
        <dia:composite type="text">
          <dia:attribute name="string">
            <dia:string>#Test functions start with 'test_'.#</dia:string>
          </dia:attribute>
          <dia:attribute name="font">
            <dia:font family="sans" style="0" name="Helvetica"/>
          </dia:attribute>
          <dia:attribute name="height">
            <dia:real val="0.80000000000000004"/>
          </dia:attribute>
          <dia:attribute name="pos">
            <dia:point val="27.3849,13.255"/>
          </dia:attribute>
          <dia:attribute name="color">
            <dia:color val="#000000"/>
          </dia:attribute>
          <dia:attribute name="alignment">
            <dia:enum val="0"/>
          </dia:attribute>
        </dia:composite>
      </dia:attribute>
      <dia:attribute name="valign">
        <dia:enum val="3"/>
      </dia:attribute>
    </dia:object>
    <dia:object type="Standard - Line" version="0" id="O9">
      <dia:attribute name="obj_pos">
        <dia:point val="14.3602,9.95501"/>
      </dia:attribute>
      <dia:attribute name="obj_bb">
        <dia:rectangle val="14.335,9.455;27.2249,10.455"/>
      </dia:attribute>
      <dia:attribute name="conn_endpoints">
        <dia:point val="14.3602,9.95501"/>
        <dia:point val="27.1999,9.95"/>
      </dia:attribute>
      <dia:attribute name="numcp">
        <dia:int val="1"/>
      </dia:attribute>
      <dia:attribute name="line_width">
        <dia:real val="0.050000000000000003"/>
      </dia:attribute>
      <dia:attribute name="start_arrow">
        <dia:enum val="22"/>
      </dia:attribute>
      <dia:attribute name="start_arrow_length">
        <dia:real val="0.5"/>
      </dia:attribute>
      <dia:attribute name="start_arrow_width">
        <dia:real val="0.5"/>
      </dia:attribute>
    </dia:object>
    <dia:object type="Standard - Text" version="1" id="O10">
      <dia:attribute name="obj_pos">
        <dia:point val="27.6849,10.155"/>
      </dia:attribute>
      <dia:attribute name="obj_bb">
        <dia:rectangle val="27.6849,9.5875;39.8524,12.19"/>
      </dia:attribute>
      <dia:attribute name="text">
        <dia:composite type="text">
          <dia:attribute name="string">
            <dia:string>#When testing Python code, say what is
being tested and provide a do_imports
function.#</dia:string>
          </dia:attribute>
          <dia:attribute name="font">
            <dia:font family="sans" style="0" name="Helvetica"/>
          </dia:attribute>
          <dia:attribute name="height">
            <dia:real val="0.80000000000000004"/>
          </dia:attribute>
          <dia:attribute name="pos">
            <dia:point val="27.6849,10.155"/>
          </dia:attribute>
          <dia:attribute name="color">
            <dia:color val="#000000"/>
          </dia:attribute>
          <dia:attribute name="alignment">
            <dia:enum val="0"/>
          </dia:attribute>
        </dia:composite>
      </dia:attribute>
      <dia:attribute name="valign">
        <dia:enum val="3"/>
      </dia:attribute>
    </dia:object>
    <dia:object type="Standard - Text" version="1" id="O11">
      <dia:attribute name="obj_pos">
        <dia:point val="27.485,22.205"/>
      </dia:attribute>
      <dia:attribute name="obj_bb">
        <dia:rectangle val="27.485,21.6375;41.4025,24.24"/>
      </dia:attribute>
      <dia:attribute name="text">
        <dia:composite type="text">
          <dia:attribute name="string">
            <dia:string>#The setUp and tearDown functions provide
the fixture for each test. You can omit them;
here they are included, but do nothing.#</dia:string>
          </dia:attribute>
          <dia:attribute name="font">
            <dia:font family="sans" style="0" name="Helvetica"/>
          </dia:attribute>
          <dia:attribute name="height">
            <dia:real val="0.80000000000000004"/>
          </dia:attribute>
          <dia:attribute name="pos">
            <dia:point val="27.485,22.205"/>
          </dia:attribute>
          <dia:attribute name="color">
            <dia:color val="#000000"/>
          </dia:attribute>
          <dia:attribute name="alignment">
            <dia:enum val="0"/>
          </dia:attribute>
        </dia:composite>
      </dia:attribute>
      <dia:attribute name="valign">
        <dia:enum val="3"/>
      </dia:attribute>
    </dia:object>
    <dia:object type="Standard - Line" version="0" id="O12">
      <dia:attribute name="obj_pos">
        <dia:point val="10.4114,23.8051"/>
      </dia:attribute>
      <dia:attribute name="obj_bb">
        <dia:rectangle val="10.3357,23.3051;27.0274,25.5274"/>
      </dia:attribute>
      <dia:attribute name="conn_endpoints">
        <dia:point val="10.4114,23.8051"/>
        <dia:point val="27,25.5"/>
      </dia:attribute>
      <dia:attribute name="numcp">
        <dia:int val="1"/>
      </dia:attribute>
      <dia:attribute name="line_width">
        <dia:real val="0.050000000000000003"/>
      </dia:attribute>
      <dia:attribute name="start_arrow">
        <dia:enum val="22"/>
      </dia:attribute>
      <dia:attribute name="start_arrow_length">
        <dia:real val="0.5"/>
      </dia:attribute>
      <dia:attribute name="start_arrow_width">
        <dia:real val="0.5"/>
      </dia:attribute>
    </dia:object>
    <dia:object type="Standard - Text" version="1" id="O13">
      <dia:attribute name="obj_pos">
        <dia:point val="27.385,14.155"/>
      </dia:attribute>
      <dia:attribute name="obj_bb">
        <dia:rectangle val="27.385,13.5875;39.4525,14.59"/>
      </dia:attribute>
      <dia:attribute name="text">
        <dia:composite type="text">
          <dia:attribute name="string">
            <dia:string>#The first docstring line provides a title.#</dia:string>
          </dia:attribute>
          <dia:attribute name="font">
            <dia:font family="sans" style="0" name="Helvetica"/>
          </dia:attribute>
          <dia:attribute name="height">
            <dia:real val="0.80000000000000004"/>
          </dia:attribute>
          <dia:attribute name="pos">
            <dia:point val="27.385,14.155"/>
          </dia:attribute>
          <dia:attribute name="color">
            <dia:color val="#000000"/>
          </dia:attribute>
          <dia:attribute name="alignment">
            <dia:enum val="0"/>
          </dia:attribute>
        </dia:composite>
      </dia:attribute>
      <dia:attribute name="valign">
        <dia:enum val="3"/>
      </dia:attribute>
    </dia:object>
    <dia:object type="Standard - Text" version="1" id="O14">
      <dia:attribute name="obj_pos">
        <dia:point val="27.585,15.305"/>
      </dia:attribute>
      <dia:attribute name="obj_bb">
        <dia:rectangle val="27.585,14.7375;39.7525,17.34"/>
      </dia:attribute>
      <dia:attribute name="text">
        <dia:composite type="text">
          <dia:attribute name="string">
            <dia:string>#The remaining lines provide the details
and are used in document generation
Note the recommended style.#</dia:string>
          </dia:attribute>
          <dia:attribute name="font">
            <dia:font family="sans" style="0" name="Helvetica"/>
          </dia:attribute>
          <dia:attribute name="height">
            <dia:real val="0.80000000000000004"/>
          </dia:attribute>
          <dia:attribute name="pos">
            <dia:point val="27.585,15.305"/>
          </dia:attribute>
          <dia:attribute name="color">
            <dia:color val="#000000"/>
          </dia:attribute>
          <dia:attribute name="alignment">
            <dia:enum val="0"/>
          </dia:attribute>
        </dia:composite>
      </dia:attribute>
      <dia:attribute name="valign">
        <dia:enum val="3"/>
      </dia:attribute>
    </dia:object>
    <dia:object type="Standard - Line" version="0" id="O15">
      <dia:attribute name="obj_pos">
        <dia:point val="19.4614,13.8051"/>
      </dia:attribute>
      <dia:attribute name="obj_bb">
        <dia:rectangle val="19.4361,13.3051;26.725,14.3051"/>
      </dia:attribute>
      <dia:attribute name="conn_endpoints">
        <dia:point val="19.4614,13.8051"/>
        <dia:point val="26.7,13.8"/>
      </dia:attribute>
      <dia:attribute name="numcp">
        <dia:int val="1"/>
      </dia:attribute>
      <dia:attribute name="line_width">
        <dia:real val="0.050000000000000003"/>
      </dia:attribute>
      <dia:attribute name="start_arrow">
        <dia:enum val="22"/>
      </dia:attribute>
      <dia:attribute name="start_arrow_length">
        <dia:real val="0.5"/>
      </dia:attribute>
      <dia:attribute name="start_arrow_width">
        <dia:real val="0.5"/>
      </dia:attribute>
    </dia:object>
    <dia:object type="Standard - Line" version="0" id="O16">
      <dia:attribute name="obj_pos">
        <dia:point val="6.06035,14.955"/>
      </dia:attribute>
      <dia:attribute name="obj_bb">
        <dia:rectangle val="6.03427,14.455;26.9251,15.4551"/>
      </dia:attribute>
      <dia:attribute name="conn_endpoints">
        <dia:point val="6.06035,14.955"/>
        <dia:point val="26.9,15"/>
      </dia:attribute>
      <dia:attribute name="numcp">
        <dia:int val="1"/>
      </dia:attribute>
      <dia:attribute name="line_width">
        <dia:real val="0.050000000000000003"/>
      </dia:attribute>
      <dia:attribute name="start_arrow">
        <dia:enum val="22"/>
      </dia:attribute>
      <dia:attribute name="start_arrow_length">
        <dia:real val="0.5"/>
      </dia:attribute>
      <dia:attribute name="start_arrow_width">
        <dia:real val="0.5"/>
      </dia:attribute>
    </dia:object>
    <dia:object type="Standard - Line" version="0" id="O17">
      <dia:attribute name="obj_pos">
        <dia:point val="12.6114,18.6551"/>
      </dia:attribute>
      <dia:attribute name="obj_bb">
        <dia:rectangle val="12.5862,18.1551;27.125,19.1551"/>
      </dia:attribute>
      <dia:attribute name="conn_endpoints">
        <dia:point val="12.6114,18.6551"/>
        <dia:point val="27.1,18.65"/>
      </dia:attribute>
      <dia:attribute name="numcp">
        <dia:int val="1"/>
      </dia:attribute>
      <dia:attribute name="line_width">
        <dia:real val="0.050000000000000003"/>
      </dia:attribute>
      <dia:attribute name="start_arrow">
        <dia:enum val="22"/>
      </dia:attribute>
      <dia:attribute name="start_arrow_length">
        <dia:real val="0.5"/>
      </dia:attribute>
      <dia:attribute name="start_arrow_width">
        <dia:real val="0.5"/>
      </dia:attribute>
    </dia:object>
    <dia:object type="Standard - Text" version="1" id="O18">
      <dia:attribute name="obj_pos">
        <dia:point val="27.535,18.705"/>
      </dia:attribute>
      <dia:attribute name="obj_bb">
        <dia:rectangle val="27.535,18.1375;41.8525,20.74"/>
      </dia:attribute>
      <dia:attribute name="text">
        <dia:composite type="text">
          <dia:attribute name="string">
            <dia:string>#A check, using a standard assertion function.
Here we call 'add' in the module under test
and assert that the result should be '7'.#</dia:string>
          </dia:attribute>
          <dia:attribute name="font">
            <dia:font family="sans" style="0" name="Helvetica"/>
          </dia:attribute>
          <dia:attribute name="height">
            <dia:real val="0.80000000000000004"/>
          </dia:attribute>
          <dia:attribute name="pos">
            <dia:point val="27.535,18.705"/>
          </dia:attribute>
          <dia:attribute name="color">
            <dia:color val="#000000"/>
          </dia:attribute>
          <dia:attribute name="alignment">
            <dia:enum val="0"/>
          </dia:attribute>
        </dia:composite>
      </dia:attribute>
      <dia:attribute name="valign">
        <dia:enum val="3"/>
      </dia:attribute>
    </dia:object>
    <dia:object type="Standard - Line" version="0" id="O19">
      <dia:attribute name="obj_pos">
        <dia:point val="5.61142,19.9051"/>
      </dia:attribute>
      <dia:attribute name="obj_bb">
        <dia:rectangle val="5.54198,19.4048;26.8271,21.8271"/>
      </dia:attribute>
      <dia:attribute name="conn_endpoints">
        <dia:point val="5.61142,19.9051"/>
        <dia:point val="26.8,21.8"/>
      </dia:attribute>
      <dia:attribute name="numcp">
        <dia:int val="1"/>
      </dia:attribute>
      <dia:attribute name="line_width">
        <dia:real val="0.050000000000000003"/>
      </dia:attribute>
      <dia:attribute name="start_arrow">
        <dia:enum val="22"/>
      </dia:attribute>
      <dia:attribute name="start_arrow_length">
        <dia:real val="0.5"/>
      </dia:attribute>
      <dia:attribute name="start_arrow_width">
        <dia:real val="0.5"/>
      </dia:attribute>
    </dia:object>
    <dia:object type="Standard - Line" version="0" id="O20">
      <dia:attribute name="obj_pos">
        <dia:point val="6.50444,21.8052"/>
      </dia:attribute>
      <dia:attribute name="obj_bb">
        <dia:rectangle val="6.47211,21.3049;26.6254,22.3056"/>
      </dia:attribute>
      <dia:attribute name="conn_endpoints">
        <dia:point val="6.50444,21.8052"/>
        <dia:point val="26.6,22.1"/>
      </dia:attribute>
      <dia:attribute name="numcp">
        <dia:int val="1"/>
      </dia:attribute>
      <dia:attribute name="line_width">
        <dia:real val="0.050000000000000003"/>
      </dia:attribute>
      <dia:attribute name="start_arrow">
        <dia:enum val="22"/>
      </dia:attribute>
      <dia:attribute name="start_arrow_length">
        <dia:real val="0.5"/>
      </dia:attribute>
      <dia:attribute name="start_arrow_width">
        <dia:real val="0.5"/>
      </dia:attribute>
    </dia:object>
    <dia:object type="Standard - Text" version="1" id="O21">
      <dia:attribute name="obj_pos">
        <dia:point val="27.535,25.855"/>
      </dia:attribute>
      <dia:attribute name="obj_bb">
        <dia:rectangle val="27.535,25.2875;40.1025,27.09"/>
      </dia:attribute>
      <dia:attribute name="text">
        <dia:composite type="text">
          <dia:attribute name="string">
            <dia:string>#Some standard boilerplate code to 'ask'
Teser to build and run the tests.#</dia:string>
          </dia:attribute>
          <dia:attribute name="font">
            <dia:font family="sans" style="0" name="Helvetica"/>
          </dia:attribute>
          <dia:attribute name="height">
            <dia:real val="0.80000000000000004"/>
          </dia:attribute>
          <dia:attribute name="pos">
            <dia:point val="27.535,25.855"/>
          </dia:attribute>
          <dia:attribute name="color">
            <dia:color val="#000000"/>
          </dia:attribute>
          <dia:attribute name="alignment">
            <dia:enum val="0"/>
          </dia:attribute>
        </dia:composite>
      </dia:attribute>
      <dia:attribute name="valign">
        <dia:enum val="3"/>
      </dia:attribute>
    </dia:object>
  </dia:layer>
</dia:diagram>
